10x10
H A S T T R U I O P
G E Y F H I I H G B
J K L E X G M S H W
C V B L N H L M T F
D O O G O T F E R V
P I K S T C W C O A
D R W C R N J V N H
G N I U A Y K I C K
K J L T T B G N I G
L P O H N G T M I X
KICK
GOOD
BACK
RIGHT
GOOGLE
LEFT
NORTH
MIT
HELLO
MIX
HOWDY
